<?xml version="1.0" encoding="utf-8"?>
<!-- Generator: Adobe Illustrator 18.1.0, SVG Export Plug-In . SVG Version: 6.00 Build 0)  -->
<svg version="1.1" id="Layer_1" xmlns="http://www.w3.org/2000/svg" xmlns:xlink="http://www.w3.org/1999/xlink" x="0px" y="0px"
	 viewBox="0 251.7 612 288.7" enable-background="new 0 251.7 612 288.7" xml:space="preserve">
<path fill="#414042" d="M488.5,252.2v210.7c0,37.4,17.4,61.6,55.9,62.3c34.4,0.4,49.9-19.3,49.9-62.3V424H612v29.1
	c0,63.8-24.2,87.3-68,87.3c-49.4,0-73.3-25.7-73.3-91.4V252.2L488.5,252.2z"/>
<g>
	<path fill="#414042" d="M141.2,252.2V449c0,65.7-23.8,91.4-73.3,91.4c-43.8,0-68-23.5-68-87.3V424h17.8v38.9
		c0,43,15.5,62.7,49.9,62.3c38.5-0.7,55.9-24.9,55.9-62.3V252.1L141.2,252.2z"/>
</g>
<path fill="#414042" d="M262,452.4l-24.5,82.7h-20l91-282.8l90.6,282.8h-19.6l-24.9-82.7l-3.8-15.1l-42.4-136.8l-42.7,136.7
	L262,452.4z"/>
<rect x="0.1" y="424" fill="#414042" width="56" height="15.3"/>
<rect x="556" y="424" fill="#414042" width="56" height="15.3"/>
<rect x="284.2" y="424" fill="#414042" width="46.9" height="15.3"/>
<rect x="470.7" y="251.7" fill="#414042" width="56" height="15.3"/>
<rect x="85.2" y="251.7" fill="#414042" width="56" height="15.3"/>
</svg>
